,nu_{WY0},nu_{WY},nu_{CO},T,m_{WY-CO},m_{CO-WY}
52.fs,7.61525639804e-12,1.25312220069,0.129097102263,0.212691234225,0.790289872614,0.0764894754911
43.fs,0.0381082183169,1.38076259431,0.118626583428,0.202499279856,0.908035122185,0.299068362608
33.fs,0.215353124715,1.39922085922,0.127341743751,0.226972388057,0.742184656463,0.144009880186
00.fs,0.0841140555899,1.16539979556,0.122045348035,0.206056328155,1.22330745661,0.120024900516
14.fs,2.25709690229e-10,1.37375133131,0.118198216339,0.207298345471,0.951949594036,0.0408626015955
45.fs,9.04712418772e-12,1.45537699589,0.140153584219,0.235843793778,0.777233298044,0.15134647546
59.fs,0.0805555899051,1.30642098336,0.120040206901,0.20834641578,0.969229849747,0.120236418877
32.fs,4.92727946473e-12,1.18214509693,0.151311101493,0.262849006292,1.34585239959,0.0598372261898
50.fs,1.0000000011e-05,1.61693827496,0.152601759413,0.304506754779,0.935236782697,0.732884222229
77.fs,6.37239264009e-07,1.12485847784,0.11477542483,0.2047351325,1.30180072972,2.89381314329e-10
71.fs,0.00140581272104,1.26400124545,0.115870211533,0.20444013761,0.976029044128,2.98323391039e-06
84.fs,4.28029094272e-12,1.32155716554,0.134603402666,0.220069580204,0.695176785193,1.29012351604e-06
13.fs,0.0189970773736,1.26787792842,0.110551931495,0.176787151019,0.597561065281,0.000156869961352
88.fs,1.28667471608e-08,1.05063659456,0.128306909841,0.207412550098,0.885551026526,0.168660339689
56.fs,0.13669079917,1.09966271519,0.116379423535,0.205405926021,1.12614316579,2.42475759865e-10
04.fs,7.98915468805e-13,1.28719338318,0.128028167702,0.223249974366,0.849884682728,0.000105772600932
09.fs,0.00214395625957,1.30708060244,0.12688502209,0.215470897536,1.06630098852,2.8740789641e-10
70.fs,1e-05,1.3592783871,0.140139092211,0.222453537628,1.1200801801,0.136023823105
25.fs,3.3606786369e-10,1.24398442188,0.12222218758,0.206058986671,0.89601572414,0.0799138336157
90.fs,9.23925928986e-12,1.36013518514,0.131567489168,0.219526958841,0.816675939145,0.0890437796385
05.fs,7.53124459412e-09,1.21589240529,0.123281382778,0.20697003154,0.983105889257,6.49826353612e-07
83.fs,6.4615651595e-12,1.48694188961,0.124966889085,0.213489892996,0.447175596863,0.155151796284
92.fs,3.82370224538e-12,1.33528186934,0.0980447894157,0.162868711089,0.45258353188,9.01526952698e-12
75.fs,0.0207498673953,1.10965395591,0.118997335886,0.20642294417,0.9826986938,0.0994883985702
95.fs,6.01502646953e-12,1.22503577697,0.125987819386,0.21020778094,1.00399629259,9.83855803678e-05
55.fs,9.57537378262e-12,1.17335442208,0.103827649737,0.172243648423,0.622111089419,3.19651921347e-12
97.fs,1.00000011283e-05,1.50838708317,0.139434242101,0.209773963303,0.802358063648,8.04187827363e-06
24.fs,7.99516927819e-12,1.34671758923,0.151302347291,0.266424472216,0.719385439835,0.486537362837
78.fs,0.13753054841,1.35691529241,0.112444456895,0.170712581648,0.420001865245,0.0588176121859
18.fs,0.0540442001721,1.61341831046,0.118346975304,0.184867832823,0.403253751133,1.20164596998e-12
35.fs,0.135249523497,1.25124726435,0.117237447357,0.206009020292,0.818035856693,0.175490308406
22.fs,6.86937923375e-11,1.32615705575,0.116608541804,0.208874879143,0.847583944716,8.93865680151e-07
49.fs,1.00000304926e-05,1.26586288976,0.119422668909,0.206530558035,0.738713971409,0.0379037786456
79.fs,0.205285865957,1.21471334706,0.114642218464,0.202186831063,1.30458861181,4.67274560422e-11
02.fs,1.00000076149e-05,1.39608390696,0.130747856925,0.210902400177,0.576355384156,0.127215331047
67.fs,1.00056102775e-05,1.24368680818,0.118810783188,0.208244346446,1.14020390435,4.12377076172e-07
65.fs,4.54969616048e-07,1.49415565825,0.113204372096,0.219448516577,0.604820676951,0.44945370096
36.fs,1.00000133323e-05,1.25471503876,0.124538457016,0.214771188375,0.854744472049,0.0519661040058
39.fs,0.0547468773522,1.25179733728,0.120894306328,0.217710479892,0.971194290393,0.0724642146232
53.fs,1.00000022121e-05,1.3496752318,0.113030267408,0.187915211363,0.921683902429,2.63198739959e-05
11.fs,0.0123335813973,1.26376930218,0.119647074949,0.208324318512,1.00772399819,0.158819446851
93.fs,1.00000022318e-05,1.24875605111,0.120142927082,0.197196952466,1.12988230709,1.38727636975e-11
96.fs,0.2157990843,1.11643027764,0.116812952759,0.203154805092,1.22842416194,0.0773576524386
07.fs,7.89191750326e-07,1.27942886737,0.117667363076,0.207656142136,0.902569351543,0.1219133274
15.fs,1.00000080105e-05,1.46236923795,0.0990603403184,0.17053838982,0.542843402277,1.91618741829e-12
41.fs,6.7051534887e-07,1.20323846221,0.12184347469,0.211930053215,0.995357282767,1.25729601372e-06
82.fs,1.00000216093e-05,1.38078317223,0.125249269675,0.207006554229,0.994144558428,0.0166126005915
68.fs,0.388849275686,1.22016208153,0.147963573463,0.23523016378,1.10937467586,0.389730224156
34.fs,1.00000021159e-05,1.30145959839,0.107288144086,0.184075494388,0.655464438815,2.54088095941e-05
51.fs,0.26450179871,1.42655979919,0.107340170182,0.163778790612,0.168293089833,1.95389293276e-12
19.fs,0.0817024784405,1.30484897172,0.10185632103,0.16912796772,0.371030157124,6.28856423699e-13
01.fs,0.074145550092,1.3028766603,0.139488540834,0.233098424818,1.18104261094,1.14266636206e-12
27.fs,1.00000012886e-05,1.15453594415,0.102302209657,0.176837962987,0.70072627817,0.0541238993526
73.fs,1.00000019614e-05,1.35817463323,0.138748699557,0.237115281892,0.984364870827,1.32633051365e-05
98.fs,0.0400938402556,1.25000586092,0.0897910573402,0.156441473441,0.311810446945,7.9788988167e-12
54.fs,0.120504349233,1.26108448098,0.132473593971,0.228043616788,0.656444355837,0.319867844146
37.fs,1.00000242587e-05,1.16489477704,0.117150472145,0.210171698338,1.29814582298,1.94623659688e-11
60.fs,2.01157204462e-05,1.22066762176,0.117631260923,0.20731447283,0.976376150169,0.108931450706
61.fs,0.181393402281,1.40269848294,0.115156781761,0.185441821798,0.604625887838,0.32889773341
48.fs,0.01668912095,1.39435828988,0.129244426647,0.207396694327,0.561215048595,5.50415669036e-09
64.fs,1.00000039108e-05,1.17875407015,0.10572443397,0.178746894956,0.946694263388,2.22215614734e-05
46.fs,1.00000023949e-05,1.5270913939,0.134804636535,0.211356726706,0.637551090495,1.27238529642e-06
99.fs,1.0000007601e-05,1.25026553458,0.144301406298,0.243713453219,1.09221300878,2.36101083686e-12
69.fs,0.328103272445,1.26662866209,0.107464796627,0.174151213613,0.39930992055,0.357529148926
44.fs,0.0155022654865,1.28294380295,0.121664834414,0.208058829815,1.08755297445,5.34260936873e-06
89.fs,1.00000000412e-05,1.45927047596,0.121170431457,0.219667548078,0.602309909481,0.371551211547
10.fs,0.109230112824,1.22632515057,0.118874631026,0.209416582508,0.908648470875,0.152338139508
81.fs,1.00000123283e-05,1.27512974509,0.128613265858,0.203851047258,0.617697530116,1.0385642799e-07
26.fs,1.00000035931e-05,1.47081049994,0.106053324895,0.169550512836,0.260392253152,1.04701974998e-11
30.fs,1.00000003251e-05,1.23025383644,0.127835094864,0.226023026085,0.75745828694,0.0858888910139
76.fs,1.2233670093e-05,1.19524377071,0.115104596429,0.205341913208,0.883328433195,0.0679858927633
38.fs,0.0582702430256,1.27943760887,0.125152706351,0.209900982059,1.03084808428,0.27606982577
62.fs,1.00000261926e-05,1.33503958922,0.12527478446,0.208258054882,0.810414966296,0.178446801755
94.fs,1.00000096981e-05,1.37792949559,0.131559742958,0.212619206006,0.575514948305,0.192630556246
40.fs,0.104042661323,1.0873629837,0.119217812639,0.20013141235,1.24642112945,3.02522354154e-11
06.fs,1.00000203409e-05,1.27507161037,0.131693049079,0.209045207049,0.741529075028,2.30642815672e-08
31.fs,1.00889201887e-05,1.3919157947,0.123034321004,0.206155574911,0.935278680484,0.129787668401
42.fs,1.00001449586e-05,1.16728981978,0.102295125286,0.187952428697,1.00052821088,0.00416790578532
58.fs,0.122835105623,1.04830139447,0.119176076535,0.209566021155,1.33589063407,1.82045616475e-07
66.fs,1.00000018198e-05,1.25514376031,0.136800701951,0.215090258535,0.530024099691,0.00399600368242
80.fs,0.00126234706346,1.30021843312,0.133706399912,0.211891112383,0.674364511132,1.0823939986e-07
91.fs,1.00000023067e-05,1.41427245157,0.135726389475,0.214656572427,0.640495819583,1.89212115439e-05
20.fs,0.264257388867,1.22598635691,0.128376353702,0.219487291728,0.832463061181,0.324567799128
85.fs,1.01097195016e-05,1.3681002984,0.117449330594,0.208029835895,1.07166964777,0.102776849873
72.fs,0.364880739999,1.19975135652,0.10003784661,0.14775401622,0.439493633888,1.31402793081e-11
29.fs,2.31312173638e-05,1.23718796117,0.118849693129,0.209530236626,0.802135303982,1.12180480205e-12
17.fs,0.000314764304392,1.40735431744,0.11638400456,0.216386072862,0.716128029442,0.432868285332
74.fs,1.00000021621e-05,1.44992177888,0.124287459701,0.216479611149,0.577084458619,0.275888385623
16.fs,1.00000096924e-05,1.45103135125,0.139713676183,0.231452398907,0.796691063335,0.000958677574962
87.fs,1.00000058491e-05,1.32563552583,0.129881173613,0.212229565241,0.779223961882,0.172542356644
23.fs,1.00000095974e-05,1.18883782785,0.162708404559,0.2756531905,1.18553384687,3.87333113581e-12
08.fs,0.0688049576803,1.22288373228,0.101757275872,0.165877476375,0.65451727503,8.63234071367e-12
57.fs,1.00000027641e-05,1.23613873569,0.140084430592,0.224298161914,0.849278884718,0.0280534347032
28.fs,0.170498698914,1.5093550499,0.0958332714619,0.153710049598,0.251506072965,5.43545123283e-12
86.fs,1.00000041711e-05,1.20977012881,0.137942099539,0.216015768923,0.606611500734,6.96771933356e-06
63.fs,1.00416258208e-05,1.17102036839,0.127029722912,0.206563955464,0.914336548377,0.130068342145
12.fs,0.259988449017,1.39813410973,0.137205270567,0.241925029344,0.931258552532,0.345085661964
03.fs,1.00189607234e-05,1.24855774866,0.131080317984,0.210198344539,0.916591197785,0.168471916583
47.fs,1.00000027682e-05,1.34603990375,0.134297149216,0.217598029255,0.689488374988,2.88614520201e-06
21.fs,0.302094458235,1.31489745104,0.152652205142,0.227148814622,1.05847856965,9.59645132415e-12
